127.0.0.1/16,Moldova
78.*.170.144,Sudan
38.*.220.99,Nicaragua
164.154.64.*,Belgium
237.105.*.253,Barbados
57.61.*.116,Nicaragua
114.11.45.*,Grenada
128.205.212.*,Armenia
1.*.86.157,Costa Rica
142.55.143.*,Lesotho
141.*.97.93,Grenada
167.209.190.*,Lesotho
197.67.226.*,Ukraine
146.117.109.*,Paraguay
134.4.*.198,Equatorial Guinea
114.131.141.*,Reunion
172.*.48.149,Cuba
221.9.176.*,Nigeria
153.*.188.132,Syria
166.4.*.117,Swaziland
237.13.*.205,Switzerland
124.*.183.164,Mongolia
72.*.97.200,Mauritania
129.94.*.158,Gabon
135.153.49.*,Virgin Islands (US)
208.232.*.55,Kosovo
58.29.*.162,Cayman Islands
37.31.*.185,Poland
197.*.128.215,Malawi
120.217.98.*,Bermuda
126.*.41.133,Saint Lucia
87.115.206.*,India
143.*.142.35,Indonesia
92.*.0.250,Malta
238.*.13.236,Dominica
218.146.207.*,Fiji
239.137.33.*,Saint Kitts and Nevis
98.*.144.254,Libya
163.*.199.238,Lebanon
21.*.2.85,Seychelles
129.199.136.*,Turkmenistan
186.54.151.*,Niger
149.17.*.152,Namibia
200.44.*.41,Latvia
205.*.124.9,Gambia
164.168.*.65,Cuba
218.176.43.*,Monaco
54.*.195.125,Poland
112.251.*.125,Ghana
14.113.*.159,Japan
173.122.20.*,Estonia
140.155.116.*,Afghanistan
178.55.*.128,French Guiana
63.*.75.146,Reunion
233.38.*.121,Singapore
129.135.45.*,Kuwait
82.206.71.*,Turkey
42.75.75.*,Pacific Islands
186.17.*.91,Belarus
147.*.249.243,Barbados
62.99.*.102,Barbados
75.60.*.180,India
77.113.99.*,South Sudan
243.179.*.79,Virgin Islands (UK)
184.157.106.*,Madagascar
211.97.51.*,Yemen
53.*.121.122,Mayotte
171.156.181.*,Malaysia
174.234.*.167,Egypt
171.*.198.26,Philippines
78.151.*.139,Brunei Darussalam
36.*.159.128,Namibia
72.*.149.173,Ethiopia
156.132.*.135,Sudan
167.*.104.238,Samoa
239.229.*.204,Virgin Islands (US)
196.179.*.114,Luxembourg
0.49.*.210,Armenia
106.232.*.209,Dominican Republic
195.84.*.126,Dominican Republic
120.79.107.*,Central African Republic
98.246.46.*,Uzbekistan
205.54.*.98,Guyana
182.174.*.118,Namibia
243.230.*.200,Saint Kitts and Nevis
232.19.103.*,Saint Vincent's & Grenadines
62.126.106.*,Ivory Coast (Cote d'Ivoire)
57.191.*.84,Turkey
237.201.52.*,Mongolia
92.20.*.189,Malaysia
94.71.*.207,Guinea-Bissau
159.246.*.201,Guinea
107.*.118.224,Saudi Arabia
240.191.*.119,Kuwait
106.135.*.190,Congo
176.174.*.182,Bhutan
168.21.231.*,Uganda
173.*.233.246,Turkey
197.*.56.89,Maldives
1.124.*.36,Virgin Islands (UK)
25.19.*.251,Cayman Islands
5.*.25.181,Ghana
45.150.76.*,Costa Rica
242.38.*.35,Chile
15.172.251.*,Anguilla
139.13.*.29,Turkmenistan
121.236.21.*,Colombia
74.97.*.109,Kosovo
229.12.*.173,Namibia
67.*.102.151,Ethiopia
246.*.62.31,Burkina Faso
153.*.117.195,Dominica
227.179.238.*,Egypt
168.154.164.*,Bulgaria
57.242.243.*,Korea- Republic of (South Korea)
10.69.126.*,Liberia
78.129.*.141,Liberia
154.68.*.69,Guadeloupe
178.214.190.*,Mongolia
238.*.174.16,Bahamas
57.222.*.204,Turkmenistan
212.166.*.48,Romania
231.*.234.165,Azerbaijan
120.104.206.*,Puerto Rico
125.226.*.217,Democratic Republic of the Congo
95.63.127.*,Finland
114.209.*.252,Cuba
28.43.*.225,Chile
130.47.*.97,Indonesia
53.65.130.*,Cameroon
79.*.222.225,Afghanistan
220.87.102.*,Virgin Islands (UK)
174.242.*.239,Kuwait
177.101.*.153,Tajikistan
242.198.231.*,Kyrgyz Republic (Kyrgyzstan)
22.205.50.*,Saint Kitts and Nevis
189.152.62.*,Iceland
248.92.176.*,Myanmar/Burma
248.*.86.224,Romania
230.184.172.*,Brazil
97.*.198.153,Italy
122.3.*.237,Kazakhstan
204.*.161.44,Tunisia
242.119.*.164,Martinique
41.232.182.*,Ethiopia
126.41.6.*,Nigeria
139.*.98.208,Netherlands
29.210.*.166,Turks & Caicos Islands
118.136.*.152,Turkey
62.87.164.*,Maldives
164.244.*.188,Tajikistan
185.28.149.*,Great Britain
43.163.*.166,Pacific Islands
83.*.3.147,Maldives
80.207.13.*,Vietnam
138.134.*.70,Saint Vincent's & Grenadines
113.46.*.180,France
167.161.*.3,Oman
98.78.12.*,Mauritania
127.156.*.39,Laos
204.*.50.254,Trinidad & Tobago
159.198.189.*,Latvia
134.155.*.99,Papua New Guinea
121.138.5.*,Argentina
208.202.*.207,Japan
190.45.*.50,Mauritania
173.246.*.104,Bulgaria
199.54.208.*,Uruguay
200.100.211.*,Belarus
59.*.122.49,Myanmar/Burma
56.92.*.180,Bahamas
37.53.115.*,Andorra
237.*.52.129,Guinea
85.*.77.252,Australia
44.94.*.173,Philippines
20.*.114.158,Sao Tome and Principe
177.166.65.*,Azerbaijan
222.118.26.*,Romania
42.*.133.79,Switzerland
218.90.203.*,Azerbaijan
100.222.*.22,Austria
118.*.106.63,Iran
74.172.*.90,Moldova- Republic of
216.*.229.6,Sierra Leone
42.*.132.129,Honduras
241.95.*.207,Grenada
221.226.16.*,Kenya
33.123.*.98,Netherlands
15.177.25.*,Ukraine
188.178.53.*,Italy
7.142.*.214,Turks & Caicos Islands
238.94.32.*,Albania
6.231.*.233,Poland
87.114.*.220,Egypt
40.*.26.153,Oman
79.42.47.*,Gabon
175.*.146.92,Mauritania
206.98.*.86,Guyana
176.17.28.*,Indonesia
9.222.*.36,United States of America (USA)
76.*.125.112,Angola
105.18.47.*,Zambia
160.179.*.57,Slovak Republic (Slovakia)
79.*.24.164,Costa Rica
60.120.62.*,Croatia
220.31.158.*,Burundi
178.72.173.*,Azerbaijan
39.97.*.78,Germany
7.133.*.22,Syria
200.*.100.252,Great Britain
162.93.*.157,Luxembourg
103.*.148.242,Togo
219.228.82.*,United Arab Emirates
161.184.*.83,Iran
79.136.191.*,Uganda
189.155.3.*,Albania
207.125.*.249,Yemen
70.164.216.*,Canada
44.92.115.*,Niger
160.103.*.222,Central African Republic
151.36.243.*,Guadeloupe
241.126.136.*,Laos
130.251.*.154,Montserrat
126.119.*.226,Equatorial Guinea
198.27.*.157,Mongolia
12.*.246.66,Cape Verde
55.239.*.40,Azerbaijan
56.21.*.81,Bolivia
9.*.46.152,Solomon Islands
6.242.*.194,Romania
218.*.179.156,Egypt
216.235.*.170,Vietnam
79.248.238.*,Iraq
177.55.*.127,Georgia
10.*.24.240,Liechtenstein
128.105.*.1,Peru
198.149.0.*,Canada
86.4.179.*,Chile
209.129.*.237,Austria
202.*.55.169,Vietnam
167.86.*.151,Sudan
132.*.68.7,Brazil
55.224.*.111,Sri Lanka
180.230.108.*,Seychelles
218.*.177.11,Latvia
234.33.*.72,Honduras
199.123.*.44,Mongolia
176.57.75.*,South Africa
210.36.*.118,Nigeria
168.168.212.*,Singapore
84.*.171.195,Morocco
146.*.205.120,Denmark
109.95.*.96,Togo
17.71.*.28,Belarus
24.12.*.17,Ukraine
184.*.177.142,Afghanistan
129.15.*.255,Egypt
62.159.245.*,Tanzania
51.*.149.8,Cambodia
190.100.*.166,Bahamas
248.144.118.*,Malawi
41.145.*.178,Haiti
247.*.106.128,Myanmar/Burma
167.157.*.148,Uzbekistan
232.49.*.206,Mozambique
70.123.*.71,Eritrea
138.22.*.187,Peru
241.*.117.148,Rwanda
58.*.147.140,Myanmar/Burma
219.*.61.65,Japan
186.38.*.124,Belarus
133.110.*.7,Benin
47.255.165.*,Kazakhstan
135.219.*.113,Georgia
35.94.193.*,Ukraine
230.*.7.57,Singapore
217.251.172.*,Papua New Guinea
106.154.*.80,Mongolia
204.27.85.*,Kenya
123.134.*.48,Gambia
150.157.208.*,India
143.196.142.*,Japan
78.163.*.170,Portugal
239.*.84.1,Madagascar
67.87.160.*,Pacific Islands
3.206.50.*,Latvia
160.180.*.94,Algeria
5.162.67.*,Mayotte
141.159.121.*,Cambodia
53.*.195.193,Senegal
59.92.*.41,Niger
152.20.57.*,Malawi
2.*.64.238,Qatar
120.197.*.242,Montserrat
11.42.112.*,Solomon Islands
175.36.132.*,Virgin Islands (US)
61.195.252.*,Malaysia
210.179.*.90,Great Britain
230.19.102.*,Peru
245.15.198.*,Bulgaria
164.*.56.182,Yemen
87.81.*.6,Burkina Faso